vhdl IEEE_PROPOSED "../../rtl/fixed_pkg/math_utility_pkg.vhdl"
vhdl work "../../rtl/mult.vhd"
vhdl IEEE_PROPOSED "../../rtl/fixed_pkg/fixed_pkg_c.vhdl"
vhdl work "../../rtl/weight_computation.vhd"
verilog work "../../debug/weight_tb.v"
verilog work "C:/Xilinx/14.7/ISE_DS/ISE//verilog/src/glbl.v"
